
{
    "subject":"CSE",
    "number":"219",
    "semester":"Fall",
    "year":"2018",
    "title":"",
    "logos":{
        "favicon":{
            "src":"./images/sblogo.png"
        },
        "navbar":{
            "src":"./images/SBUDarkRed.png"
        },
        "bottom_left":{
            "src":"./images/SBUWhite.jpg"
        },
        "bottom_right":{
            "src":"./images/SBUCSLogo.png"
        }
    },
    "instructor":{
        "name":"Richard McKenna",
        "link":"http://www.cs.stonybrook.edu/~richard",
        "email":"richard@cs.stonybrook.edu",
        "room":"New CS 216",
        "hours":[
        ]
    },
    "pages":[
        {
            "name":"Home",
            "link":"index.html"
        },
        {
            "name":"Syllabus",
            "link":"syllabus.html"
        },
        {
            "name":"Schedule",
            "link":"schedule.html"
        },
        {
            "name":"HWs",
            "link":"hws.html"
        }
    ]
}